{
  "functionnalDocumentation":
  {
    "title": "Functionnal Documentation Socialbus"
  },
  "socialbusBotsCommands":
  {
    "title": "Socialbus Bots Commands"
  },
  "configureOSNS":
  {
    "title": "Configuring OSNS for Socialbus"
  },
  "structuralDocumentation":
  {
    "title": "Socialbus' strcutrure"
  },
  "deployAndIntegrate":
  {
    "title": "Deployement and Integration of Socialbus"
  },
  "encounteredIssues":
  {
    "title": "Encountered Issues"
  },
  "dockerStructure":
  {
    "title": "Docker Structure"
  },
  "useCase":
  {
    "title": "Socialbus Use Case"
  }
}