{
  "source": {
    "include": [
      "src"
    ],
    "includePattern": ".js$",
    "excludePattern": "(node_modules/|docs)"
  },
  "plugins": ["plugins/markdown", "node_modules/better-docs/category"],
  "templates": {
    "cleverLinks": true,
    "monospaceLinks": true
  },
  "opts": {
    "recurse": true,
    "destination": "./documentation/doc",
    "tutorials": "./documentation/tutorials",
    "readme": "./documentation/homePage.md",
    "template": "./documentation/template"
  }
}
